<?xml version="1.0" standalone="no"?>
<!DOCTYPE svg PUBLIC "-//W3C//DTD SVG 20010904//EN" "http://www.w3.org/TR/2001/REC-SVG-20010904/DTD/svg10.dtd">
<!-- Created using Karbon, part of Calligra: http://www.calligra.org/karbon -->
<svg xmlns="http://www.w3.org/2000/svg" xmlns:xlink="http://www.w3.org/1999/xlink" width="76.8pt" height="76.8pt">
<defs>
  <linearGradient id="gradient0" gradientTransform="matrix(1 0 0 0.545455 0 0)" gradientUnits="objectBoundingBox" x1="0.45865580612" y1="0.00000000000" x2="0.55207618367" y2="1.94989254167" spreadMethod="pad">
   <stop stop-color="#ffffff" offset="0.00000000000" stop-opacity="0.74375524529"/>
   <stop stop-color="#ffffff" offset="1.00000000000" stop-opacity="0.00000000000"/>
  </linearGradient>
  <filter id="filter0" filterUnits="objectBoundingBox" primitiveUnits="objectBoundingBox" x="-0.02987755100" y="-0.12200000000" width="1.05975510000" height="1.24400000000">
   <feGaussianBlur result="" in="" x="0.00000000000" y="0.00000000000" width="1.00000000000" height="1.00000000000" stdDeviation="0.0155612, 0.0635417"/>
  </filter>
  <linearGradient id="gradient1" gradientTransform="matrix(1 0 0 0.5 0 -24)" gradientUnits="objectBoundingBox" x1="0.54184075000" y1="4.00000000000" x2="0.44653682292" y2="1.74324879167" spreadMethod="pad">
   <stop stop-color="#000000" offset="0.00000000000" stop-opacity="0.50000762951"/>
   <stop stop-color="#818080" offset="1.00000000000" stop-opacity="0.00000000000"/>
  </linearGradient>
  <filter id="filter1" filterUnits="objectBoundingBox" primitiveUnits="objectBoundingBox" x="-0.03000000000" y="-0.12000000000" width="1.06000000000" height="1.24000000000">
   <feGaussianBlur result="" in="" x="0.00000000000" y="0.00000000000" width="1.00000000000" height="1.00000000000" stdDeviation="0.015625, 0.0625"/>
  </filter>
 </defs>
<g id="layer1">
  <path id="rect2993" transform="" fill="#ffc019" d="M16 0C7.0091 0.0430825 0 7.05218 0 16C0 16 0 57.4991 0 80C0 89.1201 7.0091 96 16 96L32 96L32 70L64 70L63.916 46.0684L32 46.2363L32 26L64 26L64 0C64 0 24 0 16 0Z"/>
  <path id="rect2993-6" transform="translate(32, 0)" fill="#f6f7fc" d="M48 96C56.9909 96 64.0862 89.034 64 80C64 80 64 38.5009 64 16C64.0777 6.98361 56.9326 0 48 0L32 0L32 26L0 26L0 48L32 48L32 70L0 70L0 96C0 96 32 96 48 96Z"/>
 </g><g id="g3997">
  <path id="path3999" transform="translate(32, 0)" fill="none" stroke="#000000" stroke-width="4.00000000000" stroke-linecap="butt" stroke-linejoin="miter" stroke-miterlimit="4.00000000000" d="M32 0L32 26L0 26L0 48M32 48L32 70L0 70L0 96"/>
  <rect id="rect4001" transform="" fill="none" stroke="#000000" stroke-width="4.00000000000" stroke-linecap="round" stroke-linejoin="round" width="76.80000000000pt" height="76.80000000000pt" rx="12.80000000000pt" ry="12.80000000000pt"/>
 </g><g id="layer3">
  <path id="path3926" transform="translate(32, 0)" fill="none" stroke="#000000" stroke-width="4.00000000000" stroke-linecap="butt" stroke-linejoin="miter" stroke-miterlimit="4.00000000000" d="M32 0L32 26L0 26L0 48L32 48L32 70L0 70L0 96"/>
  <rect id="rect3928" transform="" fill="none" stroke="#000000" stroke-width="4.00000000000" stroke-linecap="round" stroke-linejoin="round" width="76.80000000000pt" height="76.80000000000pt" rx="12.80000000000pt" ry="12.80000000000pt"/>
 </g><g id="layer2">
  <rect id="rect3823" transform="translate(0, -2.48032)" fill="#000000" fill-opacity="0.00000000000" width="76.80000000000pt" height="38.43495200000pt" rx="12.17173120000pt" ry="12.17251520000pt"/>
  <rect id="rect3823-8" transform="matrix(1 0 0 -1 1.55431e-14 96)" fill="#000000" fill-opacity="0.00000000000" width="76.80000000000pt" height="38.29376800000pt" rx="12.17173120000pt" ry="12.12780160000pt"/>
  <rect id="rect4003" transform="matrix(1.02961 0 0 1.19638 -2.90192 -4.71321)" fill="url(#gradient0)" filter="url(#filter0)" width="78.40000000000pt" height="19.20000000000pt" rx="12.17173120000pt" ry="6.63955384000pt"/>
  <rect id="rect4013" transform="matrix(0.976833 0 0 0.919746 1.16496 74.3199)" fill="url(#gradient1)" filter="url(#filter1)" opacity="0.56746030000" width="76.80000000000pt" height="19.20000000000pt" rx="11.20668480000pt" ry="9.60000000000pt"/>
 </g>
</svg>
